{"page":"1","per_page":15,"pages":50,"total":750,"shots":[{"id":1629170,"title":"CPP logo identity","description":"Duro designed a logo identity for Channel Partner Program, a sub division of Powin corporation.","height":300,"width":400,"likes_count":0,"comments_count":1,"rebounds_count":0,"url":"http://dribbble.com/shots/1629170-CPP-logo-identity","short_url":"http://drbl.in/lEAk","views_count":0,"rebound_source_id":null,"image_url":"https://d13yacurqjgara.cloudfront.net/users/128901/screenshots/1629170/cpp_logo.jpg","image_teaser_url":"https://d13yacurqjgara.cloudfront.net/users/128901/screenshots/1629170/cpp_logo_teaser.jpg","player":{"id":128901,"name":"Danny Rubyono","location":"Beaverton, Oregon","followers_count":71,"draftees_count":0,"likes_count":4,"likes_received_count":271,"comments_count":29,"comments_received_count":51,"rebounds_count":0,"rebounds_received_count":0,"url":"http://dribbble.com/duro26","avatar_url":"https://d13yacurqjgara.cloudfront.net/users/128901/avatars/original/danny_profile.png?1334016305","username":"duro26","twitter_screen_name":null,"website_url":"http://durocompagnie.com","drafted_by_player_id":39,"shots_count":25,"following_count":16,"created_at":"2012/04/09 13:02:01 -0400"},"created_at":"2014/07/04 15:05:48 -0400"},{"id":1629168,"title":"Rebranding Quanto Valgo","description":null,"height":300,"width":400,"likes_count":0,"comments_count":0,"rebounds_count":0,"url":"http://dribbble.com/shots/1629168-Rebranding-Quanto-Valgo","short_url":"http://drbl.in/lEAi","views_count":0,"rebound_source_id":null,"image_url":"https://d13yacurqjgara.cloudfront.net/users/193882/screenshots/1629168/rebranding-quanto-valgo.png","image_teaser_url":"https://d13yacurqjgara.cloudfront.net/users/193882/screenshots/1629168/rebranding-quanto-valgo_teaser.png","player":{"id":193882,"name":"Space Chimp Design","location":"Brescia","followers_count":9,"draftees_count":0,"likes_count":9,"likes_received_count":79,"comments_count":15,"comments_received_count":17,"rebounds_count":0,"rebounds_received_count":0,"url":"http://dribbble.com/SpaceChimpDesign","avatar_url":"https://d13yacurqjgara.cloudfront.net/users/193882/avatars/normal/logo_sinistra.png?1352210288","username":"SpaceChimpDesign","twitter_screen_name":"SpaceChimpWeb","website_url":"http://www.spacechimpdesign.com","drafted_by_player_id":39,"shots_count":22,"following_count":33,"created_at":"2012/08/20 04:16:56 -0400"},"created_at":"2014/07/04 15:04:15 -0400"},{"id":1629167,"title":"Clare Carrier - Photography Website Design","description":"We are excited to announce the official launch of \u003Ca href=\"http://clarecarrier.com/\" rel=\"nofollow\"\u003Ehttp://clarecarrier.com\u003C/a\u003E\n\nClare shoots using only natural light and prefer photo shoots to take place in natural and beautiful surroundings. She wants the photoshoot to be a fun experience for everybody \u2013 including herself! Outside of her job as a lifestyle photographer, she enjoys landscape, nature and architectural photography.\n\nPhotography Websites \u0026amp; Logo Design - \u003Ca href=\"http://medianovak.com/\" rel=\"nofollow\"\u003Ehttp://medianovak.com/\u003C/a\u003E","height":300,"width":400,"likes_count":1,"comments_count":1,"rebounds_count":0,"url":"http://dribbble.com/shots/1629167-Clare-Carrier-Photography-Website-Design","short_url":"http://drbl.in/lEAh","views_count":2,"rebound_source_id":null,"image_url":"https://d13yacurqjgara.cloudfront.net/users/62140/screenshots/1629167/photography-website-design-medianovak-dribbble.jpg","image_teaser_url":"https://d13yacurqjgara.cloudfront.net/users/62140/screenshots/1629167/photography-website-design-medianovak-dribbble_teaser.jpg","player":{"id":62140,"name":"Media Novak","location":null,"followers_count":245,"draftees_count":4,"likes_count":666,"likes_received_count":1518,"comments_count":128,"comments_received_count":193,"rebounds_count":30,"rebounds_received_count":28,"url":"http://dribbble.com/MediaNovak","avatar_url":"https://d13yacurqjgara.cloudfront.net/users/62140/avatars/normal/media-novak-thumb-2.png?1402470515","username":"MediaNovak","twitter_screen_name":"MediaNovak","website_url":"http://www.medianovak.com","drafted_by_player_id":9603,"shots_count":154,"following_count":399,"created_at":"2011/09/16 02:25:42 -0400"},"created_at":"2014/07/04 15:03:48 -0400"},{"id":1629165,"title":"Style","description":null,"height":300,"width":400,"likes_count":1,"comments_count":0,"rebounds_count":0,"url":"http://dribbble.com/shots/1629165-Style","short_url":"http://drbl.in/lEAf","views_count":3,"rebound_source_id":null,"image_url":"https://d13yacurqjgara.cloudfront.net/users/571465/screenshots/1629165/style.jpg","image_teaser_url":"https://d13yacurqjgara.cloudfront.net/users/571465/screenshots/1629165/style_teaser.jpg","player":{"id":571465,"name":"Artem Stepanov","location":"St.Petersburg","followers_count":19,"draftees_count":0,"likes_count":70,"likes_received_count":120,"comments_count":25,"comments_received_count":34,"rebounds_count":0,"rebounds_received_count":0,"url":"http://dribbble.com/meisographic","avatar_url":"https://d13yacurqjgara.cloudfront.net/users/571465/avatars/normal/Dribble-profile1.png?1399987807","username":"meisographic","twitter_screen_name":"meisographic","website_url":"http://www.meisographic.com","drafted_by_player_id":16540,"shots_count":8,"following_count":13,"created_at":"2014/05/13 08:35:47 -0400"},"created_at":"2014/07/04 14:59:59 -0400"},{"id":1629164,"title":" FanDanz App Animated Characters","description":"After more than one year developing FanDanz's structure and branding we couldn't wait to develop this little App video promo and see these characters become alive. Enjoy the gifs and feel free to pin \u0026amp; share them :)\n\nWatch the full video at: http://thewoork.co/?portfolio=fandanz-promo-video","height":600,"width":800,"likes_count":1,"comments_count":1,"rebounds_count":0,"url":"http://dribbble.com/shots/1629164-FanDanz-App-Animated-Characters","short_url":"http://drbl.in/lEAe","views_count":1,"rebound_source_id":null,"image_url":"https://d13yacurqjgara.cloudfront.net/users/581810/screenshots/1629164/todosjuntos_800x600.gif","image_teaser_url":"https://d13yacurqjgara.cloudfront.net/users/581810/screenshots/1629164/todosjuntos_800x600_teaser.gif","image_400_url":"https://d13yacurqjgara.cloudfront.net/users/581810/screenshots/1629164/todosjuntos_800x600_1x.gif","player":{"id":581810,"name":"The Woork Co","location":"Madrid, Spain","followers_count":33,"draftees_count":0,"likes_count":18,"likes_received_count":105,"comments_count":8,"comments_received_count":23,"rebounds_count":0,"rebounds_received_count":0,"url":"http://dribbble.com/thewoorkco","avatar_url":"https://d13yacurqjgara.cloudfront.net/users/581810/avatars/normal/thewoorkco.png?1400951238","username":"thewoorkco","twitter_screen_name":"thewoorkco","website_url":"http://thewoork.co","drafted_by_player_id":42028,"shots_count":6,"following_count":256,"created_at":"2014/05/24 13:02:59 -0400"},"created_at":"2014/07/04 14:59:46 -0400"},{"id":1629163,"title":"Pausa para o caf\u00e9","description":"Coffee time.","height":600,"width":800,"likes_count":0,"comments_count":1,"rebounds_count":0,"url":"http://dribbble.com/shots/1629163-Pausa-para-o-caf","short_url":"http://drbl.in/lEAd","views_count":2,"rebound_source_id":null,"image_url":"https://d13yacurqjgara.cloudfront.net/users/100817/screenshots/1629163/cafe.jpg","image_teaser_url":"https://d13yacurqjgara.cloudfront.net/users/100817/screenshots/1629163/cafe_teaser.jpg","image_400_url":"https://d13yacurqjgara.cloudfront.net/users/100817/screenshots/1629163/cafe_1x.jpg","player":{"id":100817,"name":"Ricardo Braghetto","location":"Brazil","followers_count":0,"draftees_count":0,"likes_count":8,"likes_received_count":10,"comments_count":3,"comments_received_count":3,"rebounds_count":0,"rebounds_received_count":0,"url":"http://dribbble.com/braghetto","avatar_url":"https://d13yacurqjgara.cloudfront.net/users/100817/avatars/normal/040d2396608b48a5874b292cfd258b3b.jpg?1391795310","username":"braghetto","twitter_screen_name":null,"website_url":"http://www.behance.net/braghetto","drafted_by_player_id":39,"shots_count":4,"following_count":12,"created_at":"2012/02/09 08:03:50 -0500"},"created_at":"2014/07/04 14:59:30 -0400"},{"id":1629162,"title":"Logo Design for beauty salon \"O la la\"","description":"sketch logo","height":600,"width":800,"likes_count":0,"comments_count":1,"rebounds_count":0,"url":"http://dribbble.com/shots/1629162-Logo-Design-for-beauty-salon-O-la-la","short_url":"http://drbl.in/lEAc","views_count":4,"rebound_source_id":null,"image_url":"https://d13yacurqjgara.cloudfront.net/users/588845/screenshots/1629162/9.jpg","image_teaser_url":"https://d13yacurqjgara.cloudfront.net/users/588845/screenshots/1629162/9_teaser.jpg","image_400_url":"https://d13yacurqjgara.cloudfront.net/users/588845/screenshots/1629162/9_1x.jpg","player":{"id":588845,"name":"Rita Konik","location":"Russia","followers_count":107,"draftees_count":0,"likes_count":28,"likes_received_count":372,"comments_count":46,"comments_received_count":74,"rebounds_count":0,"rebounds_received_count":0,"url":"http://dribbble.com/ritakonik","avatar_url":"https://d13yacurqjgara.cloudfront.net/users/588845/avatars/normal/yRTbHTtJ.jpeg?1401711231","username":"ritakonik","twitter_screen_name":"ritakonik","website_url":"http://logobaker.ru/account","drafted_by_player_id":86597,"shots_count":12,"following_count":37,"created_at":"2014/06/02 08:13:50 -0400"},"created_at":"2014/07/04 14:59:17 -0400"},{"id":1629161,"title":"HAPPY 4TH OF JULY!","description":"Here's to liberty and to the men and women who fought/fight for it.\n\n-Jose ","height":600,"width":800,"likes_count":0,"comments_count":1,"rebounds_count":0,"url":"http://dribbble.com/shots/1629161-HAPPY-4TH-OF-JULY","short_url":"http://drbl.in/lEAb","views_count":1,"rebound_source_id":null,"image_url":"https://d13yacurqjgara.cloudfront.net/users/24650/screenshots/1629161/fa_july4th_sm.jpg","image_teaser_url":"https://d13yacurqjgara.cloudfront.net/users/24650/screenshots/1629161/fa_july4th_sm_teaser.jpg","image_400_url":"https://d13yacurqjgara.cloudfront.net/users/24650/screenshots/1629161/fa_july4th_sm_1x.jpg","player":{"id":24650,"name":"Freedom Art Inc.","location":"Fort Lauderdale","followers_count":518,"draftees_count":0,"likes_count":422,"likes_received_count":2738,"comments_count":517,"comments_received_count":415,"rebounds_count":14,"rebounds_received_count":12,"url":"http://dribbble.com/freedomart","avatar_url":"https://d13yacurqjgara.cloudfront.net/users/24650/avatars/normal/fa_logo_web.png?1361584823","username":"freedomart","twitter_screen_name":"freedomartinc","website_url":"http://www.freedomartinc.com","drafted_by_player_id":5025,"shots_count":193,"following_count":232,"created_at":"2011/03/21 21:33:26 -0400"},"created_at":"2014/07/04 14:58:59 -0400"},{"id":1629160,"title":"Buying guide","description":"Have been thinking about cards lately. This one is inspired by http://buyersguide.macrumors.com/","height":600,"width":800,"likes_count":0,"comments_count":1,"rebounds_count":0,"url":"http://dribbble.com/shots/1629160-Buying-guide","short_url":"http://drbl.in/lEAa","views_count":1,"rebound_source_id":null,"image_url":"https://d13yacurqjgara.cloudfront.net/users/7405/screenshots/1629160/macbook_air_card.png","image_teaser_url":"https://d13yacurqjgara.cloudfront.net/users/7405/screenshots/1629160/macbook_air_card_teaser.png","image_400_url":"https://d13yacurqjgara.cloudfront.net/users/7405/screenshots/1629160/macbook_air_card_1x.png","player":{"id":7405,"name":"Magnus Hjelm","location":"V\u00e4xj\u00f6, Sweden","followers_count":8,"draftees_count":0,"likes_count":1,"likes_received_count":40,"comments_count":5,"comments_received_count":13,"rebounds_count":1,"rebounds_received_count":0,"url":"http://dribbble.com/magnushjelm","avatar_url":"https://d13yacurqjgara.cloudfront.net/users/7405/avatars/normal/elevator-square.jpg?1399790836","username":"magnushjelm","twitter_screen_name":"magnushjelm","website_url":"http://magnushjelm.net","drafted_by_player_id":39,"shots_count":5,"following_count":19,"created_at":"2011/01/12 15:05:52 -0500"},"created_at":"2014/07/04 14:58:24 -0400"},{"id":1629159,"title":"Wallpaper sync","description":"I like having the same wallpaper set on my iPhone, iPad, and Mac. Wishing iCloud could automatically keep them in sync for me.","height":600,"width":800,"likes_count":1,"comments_count":1,"rebounds_count":0,"url":"http://dribbble.com/shots/1629159-Wallpaper-sync","short_url":"http://drbl.in/lEzZ","views_count":17,"rebound_source_id":null,"image_url":"https://d13yacurqjgara.cloudfront.net/users/15513/screenshots/1629159/synced-wall.png","image_teaser_url":"https://d13yacurqjgara.cloudfront.net/users/15513/screenshots/1629159/synced-wall_teaser.png","image_400_url":"https://d13yacurqjgara.cloudfront.net/users/15513/screenshots/1629159/synced-wall_1x.png","player":{"id":15513,"name":"Tyler Murphy","location":"Pittsburgh, PA","followers_count":502,"draftees_count":4,"likes_count":1767,"likes_received_count":1112,"comments_count":80,"comments_received_count":109,"rebounds_count":1,"rebounds_received_count":1,"url":"http://dribbble.com/tylrmurphy","avatar_url":"https://d13yacurqjgara.cloudfront.net/users/15513/avatars/normal/1528668_568103853268838_2026665563_n.jpg?1390852473","username":"tylrmurphy","twitter_screen_name":"tylrmurphy","website_url":"http://duolingo.com","drafted_by_player_id":3833,"shots_count":25,"following_count":360,"created_at":"2011/02/02 13:33:45 -0500"},"created_at":"2014/07/04 14:57:23 -0400"},{"id":1629158,"title":"Logo Design for beauty salon \"O la la\"","description":"logo in the process","height":600,"width":800,"likes_count":1,"comments_count":1,"rebounds_count":0,"url":"http://dribbble.com/shots/1629158-Logo-Design-for-beauty-salon-O-la-la","short_url":"http://drbl.in/lEzY","views_count":6,"rebound_source_id":null,"image_url":"https://d13yacurqjgara.cloudfront.net/users/588845/screenshots/1629158/10.jpg","image_teaser_url":"https://d13yacurqjgara.cloudfront.net/users/588845/screenshots/1629158/10_teaser.jpg","image_400_url":"https://d13yacurqjgara.cloudfront.net/users/588845/screenshots/1629158/10_1x.jpg","player":{"id":588845,"name":"Rita Konik","location":"Russia","followers_count":107,"draftees_count":0,"likes_count":28,"likes_received_count":372,"comments_count":46,"comments_received_count":74,"rebounds_count":0,"rebounds_received_count":0,"url":"http://dribbble.com/ritakonik","avatar_url":"https://d13yacurqjgara.cloudfront.net/users/588845/avatars/normal/yRTbHTtJ.jpeg?1401711231","username":"ritakonik","twitter_screen_name":"ritakonik","website_url":"http://logobaker.ru/account","drafted_by_player_id":86597,"shots_count":12,"following_count":37,"created_at":"2014/06/02 08:13:50 -0400"},"created_at":"2014/07/04 14:56:59 -0400"},{"id":1629156,"title":"Happy 4th Of July","description":null,"height":300,"width":400,"likes_count":1,"comments_count":0,"rebounds_count":0,"url":"http://dribbble.com/shots/1629156-Happy-4th-Of-July","short_url":"http://drbl.in/lEzW","views_count":6,"rebound_source_id":null,"image_url":"https://d13yacurqjgara.cloudfront.net/users/562452/screenshots/1629156/4th_of_july_dribbble_shot.jpg","image_teaser_url":"https://d13yacurqjgara.cloudfront.net/users/562452/screenshots/1629156/4th_of_july_dribbble_shot_teaser.jpg","player":{"id":562452,"name":"Anthony Mejia","location":"California","followers_count":19,"draftees_count":0,"likes_count":56,"likes_received_count":81,"comments_count":17,"comments_received_count":15,"rebounds_count":0,"rebounds_received_count":0,"url":"http://dribbble.com/Anthonymejia","avatar_url":"https://d13yacurqjgara.cloudfront.net/users/562452/avatars/normal/Anthony_Mejia_Photo_for_About_Me_Page.jpg?1403386698","username":"Anthonymejia","twitter_screen_name":null,"website_url":"http://anthonymejia.com","drafted_by_player_id":39,"shots_count":12,"following_count":77,"created_at":"2014/05/01 21:06:36 -0400"},"created_at":"2014/07/04 14:54:45 -0400"},{"id":1629154,"title":"Proud American","description":"This design was inspired by listing to Macklemore. ","height":600,"width":800,"likes_count":1,"comments_count":1,"rebounds_count":0,"url":"http://dribbble.com/shots/1629154-Proud-American","short_url":"http://drbl.in/lEzU","views_count":9,"rebound_source_id":null,"image_url":"https://d13yacurqjgara.cloudfront.net/users/372993/screenshots/1629154/untitled-2.jpg","image_teaser_url":"https://d13yacurqjgara.cloudfront.net/users/372993/screenshots/1629154/untitled-2_teaser.jpg","image_400_url":"https://d13yacurqjgara.cloudfront.net/users/372993/screenshots/1629154/untitled-2_1x.jpg","player":{"id":372993,"name":"Marc Servadio","location":"Sunny California","followers_count":24,"draftees_count":2,"likes_count":546,"likes_received_count":62,"comments_count":31,"comments_received_count":14,"rebounds_count":2,"rebounds_received_count":2,"url":"http://dribbble.com/marcservadio","avatar_url":"https://d13yacurqjgara.cloudfront.net/users/372993/avatars/normal/IMG_3410.jpg?1395790525","username":"marcservadio","twitter_screen_name":"marserdesigns","website_url":"Http://www.marserdesigns.com","drafted_by_player_id":312354,"shots_count":13,"following_count":93,"created_at":"2013/07/23 00:36:09 -0400"},"created_at":"2014/07/04 14:49:23 -0400"},{"id":1629153,"title":"Love what you do","description":"Love what you do","height":300,"width":400,"likes_count":2,"comments_count":1,"rebounds_count":0,"url":"http://dribbble.com/shots/1629153-Love-what-you-do","short_url":"http://drbl.in/lEzT","views_count":9,"rebound_source_id":null,"image_url":"https://d13yacurqjgara.cloudfront.net/users/139578/screenshots/1629153/9f51adfe6a7a6a22830b6885722181f6.jpg","image_teaser_url":"https://d13yacurqjgara.cloudfront.net/users/139578/screenshots/1629153/9f51adfe6a7a6a22830b6885722181f6_teaser.jpg","player":{"id":139578,"name":"Carlos de Toro","location":"Barcelona, Spain","followers_count":105,"draftees_count":0,"likes_count":233,"likes_received_count":403,"comments_count":167,"comments_received_count":58,"rebounds_count":0,"rebounds_received_count":0,"url":"http://dribbble.com/carlosdetoro","avatar_url":"https://d13yacurqjgara.cloudfront.net/users/139578/avatars/normal/Imagen_perfil.jpg?1370037791","username":"carlosdetoro","twitter_screen_name":"carlos_detoro","website_url":"http://www.be.net/carlosdetoro","drafted_by_player_id":18374,"shots_count":41,"following_count":20,"created_at":"2012/04/28 18:42:15 -0400"},"created_at":"2014/07/04 14:47:28 -0400"}]}